<svg width="56" height="56" viewBox="0 0 56 56" fill="none" xmlns="http://www.w3.org/2000/svg">
<path fill-rule="evenodd" clip-rule="evenodd" d="M7 0C3.13401 0 0 3.13401 0 7V49C0 52.866 3.13401 56 7 56H49C52.866 56 56 52.866 56 49V7C56 3.13401 52.866 0 49 0H7ZM17.5018 27.3053L12.5508 25.2449C12.4423 25.2072 12.3622 25.1139 12.3411 25.0006C12.3199 24.8873 12.3609 24.7713 12.4484 24.6966L15.5513 21.5825C16.5789 20.5626 17.988 20.0259 19.431 20.1047L21.42 20.2075C25.6625 14.459 33.1061 8.62062 46.0855 7.01858C46.7459 6.93075 47.4092 7.1574 47.8789 7.63137C48.3487 8.10534 48.571 8.77225 48.48 9.43449C46.8965 22.4649 41.0833 29.9311 35.3384 34.1889L35.4493 36.1893C35.5223 37.6408 34.9795 39.0554 33.9555 40.083L30.8526 43.1971C30.7772 43.2744 30.6682 43.3085 30.5625 43.2878C30.4567 43.2671 30.3685 43.1944 30.3276 43.0943L28.2746 38.1255C26.8653 38.6857 25.4138 39.1326 23.9339 39.4619L23.0803 39.6461L15.9824 32.5183L16.1702 31.6616C16.4983 30.1764 16.9436 28.7197 17.5018 27.3053ZM37.8867 17.6609C36.3886 16.1557 33.9589 16.1529 32.4574 17.6545C31.7341 18.3779 31.3276 19.3605 31.3276 20.3853C31.3276 21.4101 31.7341 22.3927 32.4574 23.116C33.9589 24.6177 36.3886 24.6149 37.8867 23.1097C39.3847 21.6045 39.3847 19.166 37.8867 17.6609ZM11.6246 40.2158C10.803 39.9264 9.92073 39.8556 9.06374 40.0102C8.90891 40.0438 8.74774 39.9953 8.63692 39.8817C8.49847 39.7433 8.46096 39.5328 8.54302 39.3548C9.45214 37.393 11.8636 33.4479 16.2299 36.6348C16.2761 36.6762 16.3024 36.7354 16.3024 36.7976C16.3024 36.8597 16.2761 36.9189 16.2299 36.9603C15.0444 37.8973 14.374 39.3447 14.4245 40.8583C14.4311 41.04 14.5764 41.1858 14.7574 41.1924C16.2591 41.253 17.7003 40.595 18.6414 39.4191C18.6828 39.3683 18.7447 39.3388 18.81 39.3388C18.8754 39.3388 18.9373 39.3683 18.9786 39.4191C19.5847 40.143 21.2535 42.5075 19.4054 44.7906C18.5986 45.7638 17.4426 46.3793 16.1873 46.504C14.3946 46.6968 11.0826 47.2836 9.72956 48.8342C9.6189 48.9658 9.44505 49.0256 9.27722 48.9898C9.1094 48.9539 8.97486 48.8283 8.92716 48.6629C8.44913 47.0266 7.70647 43.3685 11.6246 40.2158Z" fill="#EE816F"/>
</svg>
