<svg width="32" height="32" viewBox="0 0 32 32" fill="none" xmlns="http://www.w3.org/2000/svg">
<path fill-rule="evenodd" clip-rule="evenodd" d="M4 0C1.79086 0 0 1.79086 0 4V28C0 30.2091 1.79086 32 4 32H28C30.2091 32 32 30.2091 32 28V4C32 1.79086 30.2091 0 28 0H4ZM15.5916 10C18.3327 10 20.6788 11.6823 21.6471 14.066C24.0637 14.1379 26 16.1086 26 18.5312C26 20.9984 23.9904 23 21.5108 23H9.46939C7.55367 23 6 21.4536 6 19.5469C6 17.7726 7.34429 16.3137 9.07347 16.1179C9.27224 12.7056 12.1139 10 15.5916 10Z" fill="#EE816F"/>
</svg>
