<svg width="32" height="32" viewBox="0 0 32 32" fill="none" xmlns="http://www.w3.org/2000/svg">
<path fill-rule="evenodd" clip-rule="evenodd" d="M4 0C1.79086 0 0 1.79086 0 4V28C0 30.2091 1.79086 32 4 32H28C30.2091 32 32 30.2091 32 28V4C32 1.79086 30.2091 0 28 0H4ZM16 6C10.486 6 6 10.486 6 16C6 21.514 10.486 26 16 26C21.514 26 26 21.514 26 16C26 10.486 21.514 6 16 6ZM16.0553 21.8171C15.1787 21.8171 14.4687 21.1066 14.4687 20.2305C14.4687 19.3539 15.1787 18.6434 16.0553 18.6434C16.9319 18.6434 17.6419 19.3539 17.6419 20.2305C17.6419 21.1066 16.9314 21.8171 16.0553 21.8171ZM19.9303 18.4726C20.7945 20.592 19.9986 22.639 18.4679 23.704C22.0373 22.5578 24.5353 18.9978 24.0248 14.9527C23.5821 11.4433 20.8263 8.59508 17.3364 8.01872C16.7842 7.92747 16.2408 7.8945 15.7109 7.91334C13.6969 7.98575 11.9626 9.48228 11.833 11.4933C11.8272 11.584 11.8242 11.6759 11.8242 11.7683C11.8242 14.102 13.7128 15.9941 16.0453 15.9994C17.7249 16.0035 19.2962 16.9172 19.9303 18.4726ZM17.6419 11.7689C17.6419 12.6451 16.9316 13.3555 16.0553 13.3555C15.1791 13.3555 14.4687 12.6451 14.4687 11.7689C14.4687 10.8926 15.1791 10.1823 16.0553 10.1823C16.9316 10.1823 17.6419 10.8926 17.6419 11.7689Z" fill="#ABCFE1"/>
</svg>
