<svg width="80" height="80" viewBox="0 0 80 80" fill="none" xmlns="http://www.w3.org/2000/svg">
<path fill-rule="evenodd" clip-rule="evenodd" d="M10 0C4.47715 0 0 4.47715 0 10V70C0 75.5229 4.47715 80 10 80H70C75.5229 80 80 75.5229 80 70V10C80 4.47715 75.5229 0 70 0H10ZM40.9244 14.3295C40.9244 17.2729 38.508 19.6589 35.5272 19.6589C32.5465 19.6589 30.1301 17.2729 30.1301 14.3295C30.1301 11.3861 32.5465 9 35.5272 9C38.508 9 40.9244 11.3861 40.9244 14.3295ZM22.9773 32.6295L24.4079 27.8137L27.139 26.5295L26.1636 36.2253C26.0335 37.6379 26.8789 38.9863 28.3094 39.4358L36.7627 42.0684L36.8928 50.7368C36.8928 52.4063 38.2583 53.7547 39.949 53.7547H40.014C41.7047 53.7547 43.0702 52.3421 43.0702 50.6726L42.8751 39.8211C42.8751 38.5368 41.9648 37.3811 40.7293 36.9958L35.3322 35.3263L36.8928 28.6484L39.4938 31.9232C40.1441 32.6937 41.1845 33.0789 42.1598 32.8221L48.0121 31.3453C49.3777 31.0242 50.223 29.6116 49.8328 28.2632C49.5077 26.9147 48.0771 26.08 46.7116 26.4653L42.485 27.5568L39.2987 23.4474C39.2526 23.4019 39.2147 23.3564 39.1792 23.3137C39.1144 23.236 39.0576 23.1678 38.9736 23.1263C38.1283 22.3558 37.0879 21.8421 35.9824 21.6495L31.1705 20.6221C29.74 20.3011 28.2444 20.4937 26.9439 21.1358L21.2217 23.8326C20.5714 24.1537 20.0512 24.7316 19.8561 25.4379L18.1004 31.3453C17.7103 32.6937 18.4906 34.1063 19.8561 34.4916C19.9007 34.5026 19.9434 34.5136 19.9848 34.5243L19.9849 34.5243C20.1851 34.5759 20.3559 34.62 20.5714 34.62C21.6118 34.4274 22.6522 33.7211 22.9773 32.6295ZM27.0089 42.4537L23.8227 56.1305C23.4325 57.7358 24.4729 59.4053 26.0986 59.7263C26.3587 59.7905 26.5537 59.7905 26.8138 59.7905C28.1794 59.7905 29.4799 58.8274 29.805 57.4147L32.8612 44.2516L27.139 42.4537H27.0089ZM53.9294 42.9032L64.3335 46.6274C65.634 47.0768 66.3493 48.5537 65.8291 49.7737L62.0576 60.0474C61.6675 61.0747 60.6921 61.7168 59.6517 61.7168C59.3916 61.7168 59.0664 61.7168 58.8063 61.5884C57.4408 61.139 56.7906 59.6621 57.2457 58.3779L58.9364 53.819L24.4079 69.7432C24.0177 69.9358 23.6926 70 23.3025 70C22.3271 70 21.4167 69.4221 20.9616 68.5232C20.3763 67.3032 20.8965 65.7621 22.197 65.1842L56.8556 49.3242L52.2388 47.6547C50.8732 47.2053 50.223 45.7284 50.6782 44.4442C51.1333 43.0958 52.6289 42.4537 53.9294 42.9032Z" fill="#ABCFE1"/>
</svg>
