<svg width="32" height="32" viewBox="0 0 32 32" fill="none" xmlns="http://www.w3.org/2000/svg">
<path fill-rule="evenodd" clip-rule="evenodd" d="M4 0C1.79086 0 0 1.79086 0 4V28C0 30.2091 1.79086 32 4 32H28C30.2091 32 32 30.2091 32 28V4C32 1.79086 30.2091 0 28 0H4ZM23.1137 6.31579L25.6936 8.82105C26.1021 9.22105 26.1021 9.89474 25.6936 10.2947C25.4786 10.5053 25.2206 10.6105 24.9411 10.6105C24.6616 10.6105 24.4037 10.5053 24.1887 10.2947L23.4577 9.57895V12.3579C23.4577 14.9263 21.3077 17.0316 18.6848 17.0316H13.2454C11.9124 17.0316 10.8159 18.0211 10.6439 19.2842C12.0414 19.7263 13.0734 21.0105 13.0734 22.5474C13.0734 24.4421 11.5039 26 9.54743 26C7.59097 26 6 24.4632 6 22.5474C6 20.9895 7.05348 19.6842 8.49395 19.2211C8.66595 16.8211 10.7084 14.9053 13.2239 14.9053H18.6633C20.1037 14.9053 21.2862 13.7474 21.2862 12.3368V9.57895L20.5552 10.2947C20.1467 10.6947 19.4587 10.6947 19.0503 10.2947C18.6418 9.89474 18.6418 9.22105 19.0503 8.82105L21.6087 6.31579C22.0172 5.89474 22.7052 5.89474 23.1137 6.31579ZM8.12846 22.5263C8.12846 23.2842 8.75195 23.8947 9.52593 23.8947C10.2999 23.8947 10.9234 23.2842 10.9234 22.5263C10.9234 21.7684 10.2999 21.1579 9.52593 21.1579C8.75195 21.1579 8.12846 21.7684 8.12846 22.5263ZM7.50497 12.5895C7.22548 12.5895 6.96748 12.4842 6.75249 12.2737C6.34399 11.8737 6.34399 11.2 6.75249 10.8L8.06396 9.55789L6.79549 8.31579C6.38699 7.91579 6.38699 7.24211 6.79549 6.84211C7.20398 6.44211 7.89196 6.44211 8.30046 6.84211L9.56893 8.08421L10.8159 6.84211C11.2244 6.44211 11.9124 6.44211 12.3209 6.84211C12.7294 7.24211 12.7294 7.91579 12.3209 8.31579L11.0524 9.55789L12.2779 10.8C12.6864 11.2 12.6864 11.8737 12.2779 12.2737C12.0629 12.4842 11.8049 12.5895 11.5254 12.5895C11.2459 12.5895 10.9879 12.4842 10.7729 12.2737L9.52593 11.0316L8.25746 12.2737C8.04246 12.4842 7.78447 12.5895 7.50497 12.5895ZM23.0707 19.8316C23.4792 19.4316 24.1672 19.4316 24.5757 19.8316C24.9841 20.2316 24.9841 20.9053 24.5542 21.3053L23.3072 22.5263L24.5542 23.7684C24.9626 24.1684 24.9626 24.8421 24.5542 25.2421C24.3392 25.4526 24.0812 25.5579 23.8017 25.5579C23.5222 25.5579 23.2642 25.4526 23.0492 25.2421L21.8022 24L20.5337 25.2421C20.3187 25.4526 20.0607 25.5579 19.7812 25.5579C19.5017 25.5579 19.2438 25.4526 19.0288 25.2421C18.6203 24.8421 18.6203 24.1684 19.0288 23.7684L20.2972 22.5263L19.0288 21.3053C18.6203 20.9053 18.6203 20.2316 19.0288 19.8316C19.4372 19.4316 20.1252 19.4316 20.5337 19.8316L21.8022 21.0526L23.0707 19.8316Z" fill="#ABCFE1"/>
</svg>
