<svg width="32" height="32" viewBox="0 0 32 32" fill="none" xmlns="http://www.w3.org/2000/svg">
<path fill-rule="evenodd" clip-rule="evenodd" d="M4 0C1.79086 0 0 1.79086 0 4V28C0 30.2091 1.79086 32 4 32H28C30.2091 32 32 30.2091 32 28V4C32 1.79086 30.2091 0 28 0H4ZM18.8786 10.9043L19.9889 11.9131H23.9152V19.932H23.5237L17.2581 13.2167C17.0904 13.0369 16.816 13.0241 16.6332 13.1877L13.7194 15.7968C13.1526 16.2986 12.2836 16.2446 11.7813 15.6773C11.2703 15.1001 11.3235 14.1665 11.8932 13.6536L15.2377 10.6421C16.2937 9.69125 17.9626 9.8111 18.8786 10.9043ZM25.7401 21.2584H27.2821C27.6786 21.2584 28 20.9284 28 20.5213V11.3741C28 10.967 27.6786 10.6369 27.2821 10.6369H25.7401C25.3435 10.6369 25.0221 10.967 25.0221 11.3741V20.5213C25.0221 20.9284 25.3435 21.2584 25.7401 21.2584ZM6.25995 21.2727H4.71795C4.32144 21.2727 4 20.9427 4 20.5356V11.3884C4 10.9813 4.32144 10.6513 4.71795 10.6513H6.25995C6.65646 10.6513 6.9779 10.9813 6.9779 11.3884V20.5356C6.9779 20.9427 6.65646 21.2727 6.25995 21.2727ZM21.2553 19.526L16.6119 14.5337L14.415 16.5835C13.442 17.497 11.9317 17.4263 11.0437 16.4257C10.1578 15.4275 10.2265 13.8811 11.1972 12.9699L13.5818 10.7314C12.2441 10.0139 10.55 10.427 9.68913 11.7656H8.13672V20.2852H9.49836L11.7052 22.6016C12.0692 23.016 12.6625 23.1199 13.1397 22.8529C13.7741 22.4979 13.9417 21.6535 13.5201 21.0741L14.6715 22.3952C14.9932 22.7644 15.5087 22.8812 15.9518 22.6853L15.9803 22.6727C16.7134 22.3487 16.9235 21.3888 16.3981 20.7776C15.6326 19.8871 14.9284 19.0381 14.9284 19.0381L17.1401 21.5987C17.5025 22.0144 18.0931 22.1252 18.5752 21.8679L18.6042 21.8524C19.3292 21.4653 19.395 20.4301 18.8452 19.8161C17.7898 18.6377 16.6451 17.2754 16.6451 17.2754C16.6451 17.2754 18.6638 19.5007 19.7186 20.6571C20.0488 21.0192 20.5621 21.135 21.0097 20.9486L21.0402 20.9359C21.6378 20.5538 21.5147 19.9499 21.2553 19.526Z" fill="#EE816F"/>
</svg>
